<?xml version="1.0" encoding="UTF-8" standalone="no"?>
<svg
   xmlns:dc="http://purl.org/dc/elements/1.1/"
   xmlns:cc="http://creativecommons.org/ns#"
   xmlns:rdf="http://www.w3.org/1999/02/22-rdf-syntax-ns#"
   xmlns:svg="http://www.w3.org/2000/svg"
   xmlns="http://www.w3.org/2000/svg"
   xmlns:sodipodi="http://sodipodi.sourceforge.net/DTD/sodipodi-0.dtd"
   xmlns:inkscape="http://www.inkscape.org/namespaces/inkscape"
   width="2000"
   height="1400"
   viewBox="0 0 529.16666 370.41668"
   version="1.1"
   id="svg8"
   inkscape:version="1.0.2-2 (e86c870879, 2021-01-15)"
   sodipodi:docname="fivestars.svg">
  <defs
     id="defs2" />
  <sodipodi:namedview
     id="base"
     pagecolor="#606060"
     bordercolor="#000000"
     borderopacity="1"
     inkscape:pageopacity="1"
     inkscape:pageshadow="2"
     inkscape:zoom="0.4874085"
     inkscape:cx="1080.2235"
     inkscape:cy="697.42605"
     inkscape:document-units="px"
     inkscape:current-layer="layer1"
     inkscape:document-rotation="0"
     showgrid="false"
     inkscape:pagecheckerboard="false"
     inkscape:showpageshadow="false"
     units="px"
     inkscape:snap-page="true"
     inkscape:window-width="1920"
     inkscape:window-height="1017"
     inkscape:window-x="-8"
     inkscape:window-y="-8"
     inkscape:window-maximized="1" />
  <metadata
     id="metadata5">
    <rdf:RDF>
      <cc:Work
         rdf:about="">
        <dc:format>image/svg+xml</dc:format>
        <dc:type
           rdf:resource="http://purl.org/dc/dcmitype/StillImage" />
        <dc:title></dc:title>
      </cc:Work>
    </rdf:RDF>
  </metadata>
  <g
     inkscape:label="Background"
     inkscape:groupmode="layer"
     id="layer1">
    <rect
       style="fill:none;fill-opacity:0.984314;stroke:none;stroke-width:1;stroke-opacity:0.984314"
       id="rect833"
       width="529.16669"
       height="370.41666"
       x="0"
       y="0"
       ry="0"
       sodipodi:insensitive="true" />
  </g>
  <g
     inkscape:groupmode="layer"
     id="layer2"
     inkscape:label="Layer 1">
    <path
       sodipodi:type="star"
       style="fill:#cc0000;stroke:#cc0000;stroke-width:1.00013"
       id="path2076"
       sodipodi:sides="6"
       sodipodi:cx="56.997879"
       sodipodi:cy="180.22186"
       sodipodi:r1="49.943951"
       sodipodi:r2="31.320391"
       sodipodi:arg1="1.5816655"
       sodipodi:arg2="2.6452483"
       inkscape:flatsided="false"
       inkscape:rounded="0"
       inkscape:randomized="0"
       d="m 56.45504,230.16286 -26.998098,-35.02578 -15.980657,9.58517 16.83417,-40.89393 -16.291332,-9.04707 43.832269,-5.86815 -0.310674,-18.63224 26.998098,35.02579 15.980654,-9.58518 -16.834167,40.89394 16.291332,9.04707 -43.832269,5.86814 z"
       inkscape:transform-center-y="2.256834e-06" />
    <path
       sodipodi:type="star"
       style="fill:#cc0000;stroke:#cc0000;stroke-width:1.00013"
       id="path2078"
       sodipodi:sides="6"
       sodipodi:cx="197.0498"
       sodipodi:cy="182.93605"
       sodipodi:r1="49.943951"
       sodipodi:r2="31.320391"
       sodipodi:arg1="1.5816655"
       sodipodi:arg2="2.6452483"
       inkscape:flatsided="false"
       inkscape:rounded="0"
       inkscape:randomized="0"
       d="m 196.50697,232.87705 -26.9981,-35.02578 -15.98066,9.58517 16.83417,-40.89393 -16.29133,-9.04707 43.83227,-5.86815 -0.31068,-18.63224 26.9981,35.02579 15.98066,-9.58518 -16.83417,40.89393 16.29133,9.04707 -43.83227,5.86815 z"
       transform="rotate(-36.83199,176.15058,245.70292)" />
    <path
       sodipodi:type="star"
       style="fill:#cc0000;stroke:#cc0000;stroke-width:1.00013"
       id="path2080"
       sodipodi:sides="6"
       sodipodi:cx="197.0498"
       sodipodi:cy="182.93605"
       sodipodi:r1="49.943951"
       sodipodi:r2="31.320391"
       sodipodi:arg1="1.5816655"
       sodipodi:arg2="2.6452483"
       inkscape:flatsided="false"
       inkscape:rounded="0"
       inkscape:randomized="0"
       d="m 196.50697,232.87705 -26.9981,-35.02578 -15.98066,9.58517 16.83417,-40.89393 -16.29133,-9.04707 43.83227,-5.86815 -0.31068,-18.63224 26.9981,35.02579 15.98066,-9.58518 -16.83417,40.89393 16.29133,9.04707 -43.83227,5.86815 z"
       transform="rotate(7.4781379,242.0796,680.50415)" />
    <path
       sodipodi:type="star"
       style="fill:#ffffff;stroke:#cc0000;stroke-width:1.00013"
       id="path2084"
       sodipodi:sides="6"
       sodipodi:cx="197.0498"
       sodipodi:cy="182.93605"
       sodipodi:r1="49.943951"
       sodipodi:r2="31.320391"
       sodipodi:arg1="1.5816655"
       sodipodi:arg2="2.6452483"
       inkscape:flatsided="false"
       inkscape:rounded="0"
       inkscape:randomized="0"
       d="m 196.50697,232.87705 -26.9981,-35.02578 -15.98066,9.58517 16.83417,-40.89393 -16.29133,-9.04707 43.83227,-5.86815 -0.31068,-18.63224 26.9981,35.02579 15.98066,-9.58518 -16.83417,40.89393 16.29133,9.04707 -43.83227,5.86815 z"
       transform="rotate(7.4781379,293.10628,1461.3031)" />
    <path
       sodipodi:type="star"
       style="fill:#ffffff;stroke:#cc0000;stroke-width:1.00013"
       id="path2086"
       sodipodi:sides="6"
       sodipodi:cx="197.0498"
       sodipodi:cy="182.93605"
       sodipodi:r1="49.943951"
       sodipodi:r2="31.320391"
       sodipodi:arg1="1.5816655"
       sodipodi:arg2="2.6452483"
       inkscape:flatsided="false"
       inkscape:rounded="0"
       inkscape:randomized="0"
       d="m 196.50697,232.87705 -26.9981,-35.02578 -15.98066,9.58517 16.83417,-40.89393 -16.29133,-9.04707 43.83227,-5.86815 -0.31068,-18.63224 26.9981,35.02579 15.98066,-9.58518 -16.83417,40.89393 16.29133,9.04707 -43.83227,5.86815 z"
       transform="rotate(7.4781379,345.21862,2258.7149)" />
  </g>
</svg>
